t TbuttonBig res/textures/gui/button_big.png
t TlogoMedium res/textures/gui/logo_medium.png
s butttonBig TbuttonBig 0 0 250 50 0 0
s logoMedium TlogoMedium 0 0 200 200 0 0
f default res/fonts/pixelated.ttf