t TspinLeft res/textures/gui/spin_left.png
t TspinRight res/textures/gui/spin_right.png
t TbuttonMedium res/textures/gui/button_medium.png
s spinLeft TspinLeft 0 0 10 20 0 0
s spinRight TspinRight 0 0 10 20 0 0
s buttonMedium TbuttonMedium 0 0 150 50 0 0
f default res/fonts/pixelated.ttf